<?xml version="1.0" standalone="no"?>
<!DOCTYPE svg PUBLIC "-//W3C//DTD SVG 20010904//EN"
 "http://www.w3.org/TR/2001/REC-SVG-20010904/DTD/svg10.dtd">
<svg version="1.0" xmlns="http://www.w3.org/2000/svg"
 width="700.000000pt" height="700.000000pt" viewBox="0 0 700.000000 700.000000"
 preserveAspectRatio="xMidYMid meet">
<g transform="translate(0.000000,700.000000) scale(0.100000,-0.100000)"
fill="#000000" stroke="none">
<path d="M4558 6645 c-2 -2 -68 -6 -147 -9 -80 -4 -147 -9 -150 -10 -3 -2 -40
-7 -81 -10 -309 -29 -755 -147 -1103 -292 -723 -303 -1262 -714 -1643 -1254
-93 -132 -277 -469 -319 -585 -10 -27 -22 -54 -26 -60 -16 -22 -103 -312 -115
-385 -3 -14 -11 -61 -19 -105 -26 -144 -36 -267 -37 -430 0 -105 9 -283 17
-315 2 -8 7 -40 10 -70 32 -275 163 -648 327 -925 50 -85 189 -289 207 -305 3
-3 35 -39 71 -80 123 -141 258 -267 418 -388 89 -69 114 -99 115 -138 0 -42
-68 -97 -136 -109 -12 -3 -33 -7 -47 -10 -51 -11 -114 -21 -185 -29 -22 -3
-65 -8 -95 -12 -138 -17 -504 -5 -632 22 -15 3 -42 7 -60 9 -203 25 -595 157
-816 276 -41 21 -76 39 -78 39 -23 0 281 -327 381 -410 126 -105 264 -204 370
-267 85 -50 236 -133 242 -133 3 0 35 -14 71 -31 189 -88 504 -186 686 -213
21 -4 41 -8 45 -10 3 -2 33 -7 66 -10 33 -4 67 -9 75 -11 17 -4 126 -15 215
-20 151 -10 435 -5 560 10 22 2 67 7 100 11 280 29 736 148 1035 271 206 85
550 255 660 327 19 12 69 44 110 71 345 221 683 543 909 864 163 234 356 624
417 848 49 180 81 332 90 433 9 101 17 253 17 310 0 70 -13 292 -18 300 -1 3
-5 28 -9 55 -3 28 -8 60 -10 71 -2 12 -7 38 -10 59 -14 89 -60 252 -108 385
-146 404 -393 764 -726 1060 -40 35 -81 70 -90 77 -103 77 -174 138 -185 160
-51 105 95 167 469 199 230 20 430 8 734 -42 198 -32 581 -167 768 -269 34
-19 65 -35 68 -35 26 0 -287 332 -403 428 -235 195 -503 353 -788 465 -131 52
-348 120 -419 132 -17 3 -47 10 -66 15 -19 5 -64 14 -100 19 -36 6 -74 13 -85
15 -11 2 -49 7 -85 11 -36 4 -78 9 -95 11 -16 2 -97 7 -180 10 -82 3 -158 7
-167 8 -9 2 -18 3 -20 1z m-853 -2100 c220 -46 404 -146 556 -302 354 -365
404 -912 122 -1335 -80 -121 -228 -264 -323 -313 -19 -10 -37 -21 -40 -24 -14
-18 -181 -84 -265 -105 -234 -58 -491 -31 -714 75 -207 98 -388 275 -492 481
-30 60 -66 152 -74 191 -2 10 -7 28 -11 39 -15 49 -30 191 -28 273 16 583 496
1047 1074 1039 63 -1 151 -10 195 -19z"/>
</g>
</svg>
